Ignoring exception in command weather
Traceback (most recent call last):
  File "/usr/local/lib/python3.6/site-packages/discord/ext/commands/core.py", line 50, in wrapped
    ret = yield from coro(*args, **kwargs)
  File "pi_bot.py", line 43, in weather
    await bot.say(wetter.getWeather(city))
  File "/home/pi/Discord/Bots/pi-bot/simpleBot/wetter.py", line 18, in getWeather
    temp = float("{0:.2f}".format(float((weather_dict['main'])['temp'])-273.15))
KeyError: 'main'

The above exception was the direct cause of the following exception:

Traceback (most recent call last):
  File "/usr/local/lib/python3.6/site-packages/discord/ext/commands/bot.py", line 846, in process_commands
    yield from command.invoke(ctx)
  File "/usr/local/lib/python3.6/site-packages/discord/ext/commands/core.py", line 374, in invoke
    yield from injected(*ctx.args, **ctx.kwargs)
  File "/usr/local/lib/python3.6/site-packages/discord/ext/commands/core.py", line 54, in wrapped
    raise CommandInvokeError(e) from e
discord.ext.commands.errors.CommandInvokeError: Command raised an exception: KeyError: 'main'
Ignoring exception in command weather
Traceback (most recent call last):
  File "/usr/local/lib/python3.6/site-packages/discord/ext/commands/core.py", line 50, in wrapped
    ret = yield from coro(*args, **kwargs)
  File "pi_bot.py", line 43, in weather
    await bot.say(wetter.getWeather(city))
  File "/home/pi/Discord/Bots/pi-bot/simpleBot/wetter.py", line 18, in getWeather
    temp = float("{0:.2f}".format(float((weather_dict['main'])['temp'])-273.15))
KeyError: 'main'

The above exception was the direct cause of the following exception:

Traceback (most recent call last):
  File "/usr/local/lib/python3.6/site-packages/discord/ext/commands/bot.py", line 846, in process_commands
    yield from command.invoke(ctx)
  File "/usr/local/lib/python3.6/site-packages/discord/ext/commands/core.py", line 374, in invoke
    yield from injected(*ctx.args, **ctx.kwargs)
  File "/usr/local/lib/python3.6/site-packages/discord/ext/commands/core.py", line 54, in wrapped
    raise CommandInvokeError(e) from e
discord.ext.commands.errors.CommandInvokeError: Command raised an exception: KeyError: 'main'
Ignoring exception in command weather
Traceback (most recent call last):
  File "/usr/local/lib/python3.6/site-packages/discord/ext/commands/core.py", line 50, in wrapped
    ret = yield from coro(*args, **kwargs)
  File "pi_bot.py", line 43, in weather
    await bot.say(wetter.getWeather(city))
  File "/home/pi/Discord/Bots/pi-bot/simpleBot/wetter.py", line 18, in getWeather
    temp = float("{0:.2f}".format(float((weather_dict['main'])['temp'])-273.15))
KeyError: 'main'

The above exception was the direct cause of the following exception:

Traceback (most recent call last):
  File "/usr/local/lib/python3.6/site-packages/discord/ext/commands/bot.py", line 846, in process_commands
    yield from command.invoke(ctx)
  File "/usr/local/lib/python3.6/site-packages/discord/ext/commands/core.py", line 374, in invoke
    yield from injected(*ctx.args, **ctx.kwargs)
  File "/usr/local/lib/python3.6/site-packages/discord/ext/commands/core.py", line 54, in wrapped
    raise CommandInvokeError(e) from e
discord.ext.commands.errors.CommandInvokeError: Command raised an exception: KeyError: 'main'
Ignoring exception in command weather
Traceback (most recent call last):
  File "/usr/local/lib/python3.6/site-packages/discord/ext/commands/core.py", line 50, in wrapped
    ret = yield from coro(*args, **kwargs)
  File "pi_bot.py", line 43, in weather
    await bot.say(wetter.getWeather(city))
  File "/home/pi/Discord/Bots/pi-bot/simpleBot/wetter.py", line 18, in getWeather
    temp = float("{0:.2f}".format(float((weather_dict['main'])['temp'])-273.15))
KeyError: 'main'

The above exception was the direct cause of the following exception:

Traceback (most recent call last):
  File "/usr/local/lib/python3.6/site-packages/discord/ext/commands/bot.py", line 846, in process_commands
    yield from command.invoke(ctx)
  File "/usr/local/lib/python3.6/site-packages/discord/ext/commands/core.py", line 374, in invoke
    yield from injected(*ctx.args, **ctx.kwargs)
  File "/usr/local/lib/python3.6/site-packages/discord/ext/commands/core.py", line 54, in wrapped
    raise CommandInvokeError(e) from e
discord.ext.commands.errors.CommandInvokeError: Command raised an exception: KeyError: 'main'
Ignoring exception in command weather
Traceback (most recent call last):
  File "/usr/local/lib/python3.6/site-packages/discord/ext/commands/core.py", line 50, in wrapped
    ret = yield from coro(*args, **kwargs)
  File "pi_bot.py", line 43, in weather
    await bot.say(wetter.getWeather(city))
  File "/home/pi/Discord/Bots/pi-bot/simpleBot/wetter.py", line 18, in getWeather
    temp = float("{0:.2f}".format(float((weather_dict['main'])['temp'])-273.15))
KeyError: 'main'

The above exception was the direct cause of the following exception:

Traceback (most recent call last):
  File "/usr/local/lib/python3.6/site-packages/discord/ext/commands/bot.py", line 846, in process_commands
    yield from command.invoke(ctx)
  File "/usr/local/lib/python3.6/site-packages/discord/ext/commands/core.py", line 374, in invoke
    yield from injected(*ctx.args, **ctx.kwargs)
  File "/usr/local/lib/python3.6/site-packages/discord/ext/commands/core.py", line 54, in wrapped
    raise CommandInvokeError(e) from e
discord.ext.commands.errors.CommandInvokeError: Command raised an exception: KeyError: 'main'
Ignoring exception in command weather
Traceback (most recent call last):
  File "/usr/local/lib/python3.6/site-packages/discord/ext/commands/core.py", line 50, in wrapped
    ret = yield from coro(*args, **kwargs)
  File "pi_bot.py", line 43, in weather
    await bot.say(wetter.getWeather(city))
  File "/home/pi/Discord/Bots/pi-bot/simpleBot/wetter.py", line 18, in getWeather
    temp = float("{0:.2f}".format(float((weather_dict['main'])['temp'])-273.15))
KeyError: 'main'

The above exception was the direct cause of the following exception:

Traceback (most recent call last):
  File "/usr/local/lib/python3.6/site-packages/discord/ext/commands/bot.py", line 846, in process_commands
    yield from command.invoke(ctx)
  File "/usr/local/lib/python3.6/site-packages/discord/ext/commands/core.py", line 374, in invoke
    yield from injected(*ctx.args, **ctx.kwargs)
  File "/usr/local/lib/python3.6/site-packages/discord/ext/commands/core.py", line 54, in wrapped
    raise CommandInvokeError(e) from e
discord.ext.commands.errors.CommandInvokeError: Command raised an exception: KeyError: 'main'
Ignoring exception in command weather
Traceback (most recent call last):
  File "/usr/local/lib/python3.6/site-packages/discord/ext/commands/core.py", line 50, in wrapped
    ret = yield from coro(*args, **kwargs)
  File "pi_bot.py", line 43, in weather
    await bot.say(wetter.getWeather(city))
  File "/home/pi/Discord/Bots/pi-bot/simpleBot/wetter.py", line 18, in getWeather
    temp = float("{0:.2f}".format(float((weather_dict['main'])['temp'])-273.15))
KeyError: 'main'

The above exception was the direct cause of the following exception:

Traceback (most recent call last):
  File "/usr/local/lib/python3.6/site-packages/discord/ext/commands/bot.py", line 846, in process_commands
    yield from command.invoke(ctx)
  File "/usr/local/lib/python3.6/site-packages/discord/ext/commands/core.py", line 374, in invoke
    yield from injected(*ctx.args, **ctx.kwargs)
  File "/usr/local/lib/python3.6/site-packages/discord/ext/commands/core.py", line 54, in wrapped
    raise CommandInvokeError(e) from e
discord.ext.commands.errors.CommandInvokeError: Command raised an exception: KeyError: 'main'
Ignoring exception in command weather
Traceback (most recent call last):
  File "/usr/local/lib/python3.6/site-packages/discord/ext/commands/core.py", line 50, in wrapped
    ret = yield from coro(*args, **kwargs)
  File "pi_bot.py", line 43, in weather
    await bot.say(wetter.getWeather(city))
  File "/home/pi/Discord/Bots/pi-bot/simpleBot/wetter.py", line 18, in getWeather
    temp = float("{0:.2f}".format(float((weather_dict['main'])['temp'])-273.15))
KeyError: 'main'

The above exception was the direct cause of the following exception:

Traceback (most recent call last):
  File "/usr/local/lib/python3.6/site-packages/discord/ext/commands/bot.py", line 846, in process_commands
    yield from command.invoke(ctx)
  File "/usr/local/lib/python3.6/site-packages/discord/ext/commands/core.py", line 374, in invoke
    yield from injected(*ctx.args, **ctx.kwargs)
  File "/usr/local/lib/python3.6/site-packages/discord/ext/commands/core.py", line 54, in wrapped
    raise CommandInvokeError(e) from e
discord.ext.commands.errors.CommandInvokeError: Command raised an exception: KeyError: 'main'
Ignoring exception in command weather
Traceback (most recent call last):
  File "/usr/local/lib/python3.6/site-packages/discord/ext/commands/core.py", line 50, in wrapped
    ret = yield from coro(*args, **kwargs)
  File "pi_bot.py", line 43, in weather
    await bot.say(wetter.getWeather(city))
  File "/home/pi/Discord/Bots/pi-bot/simpleBot/wetter.py", line 18, in getWeather
    temp = float("{0:.2f}".format(float((weather_dict['main'])['temp'])-273.15))
KeyError: 'main'

The above exception was the direct cause of the following exception:

Traceback (most recent call last):
  File "/usr/local/lib/python3.6/site-packages/discord/ext/commands/bot.py", line 846, in process_commands
    yield from command.invoke(ctx)
  File "/usr/local/lib/python3.6/site-packages/discord/ext/commands/core.py", line 374, in invoke
    yield from injected(*ctx.args, **ctx.kwargs)
  File "/usr/local/lib/python3.6/site-packages/discord/ext/commands/core.py", line 54, in wrapped
    raise CommandInvokeError(e) from e
discord.ext.commands.errors.CommandInvokeError: Command raised an exception: KeyError: 'main'
Ignoring exception in command weather
Traceback (most recent call last):
  File "/usr/local/lib/python3.6/site-packages/discord/ext/commands/core.py", line 50, in wrapped
    ret = yield from coro(*args, **kwargs)
  File "pi_bot.py", line 43, in weather
    await bot.say(wetter.getWeather(city))
  File "/home/pi/Discord/Bots/pi-bot/simpleBot/wetter.py", line 18, in getWeather
    temp = float("{0:.2f}".format(float((weather_dict['main'])['temp'])-273.15))
KeyError: 'main'

The above exception was the direct cause of the following exception:

Traceback (most recent call last):
  File "/usr/local/lib/python3.6/site-packages/discord/ext/commands/bot.py", line 846, in process_commands
    yield from command.invoke(ctx)
  File "/usr/local/lib/python3.6/site-packages/discord/ext/commands/core.py", line 374, in invoke
    yield from injected(*ctx.args, **ctx.kwargs)
  File "/usr/local/lib/python3.6/site-packages/discord/ext/commands/core.py", line 54, in wrapped
    raise CommandInvokeError(e) from e
discord.ext.commands.errors.CommandInvokeError: Command raised an exception: KeyError: 'main'
logged in as
Pi-Bot
379361014346416138
25.11.2017 14:24:54
------
Stack Overflow
Now the current weather of Stack Overflow
-------------------------

The weather is smug. The temperature is -123.45°C and the wind speed is -23km/h.
The Matrix
Now the current weather of The Matrix
-------------------------

The weather is binary. The temperature is 6.66°C and the wind speed is 4.2km/h.
Auenland
Now the current weather of Auenland
-------------------------

The weather is sunny. The temperature is 21.23°C and the wind speed is 2.4km/h.
Hogwarts
Now the current weather of Hogwarts
-------------------------

The weather is cloudy. The temperature is 2.59°C and the wind speed is 5.3km/h.
Auenland
Now the current weather of Auenland
-------------------------

The weather is sunny. The temperature is 21.23°C and the wind speed is 2.4km/h.
morder
NIX
mordor
NIX
Mordor
Now the current weather of Mordor
-------------------------

The weather is sulfur rain. The temperature is 67.31°C and the wind speed is 0.4km/h.
Minas
NIX
The Matrix
Now the current weather of The Matrix
-------------------------

The weather is binary. The temperature is 6.66°C and the wind speed is 4.2km/h.
Edoras
NIX
Erebor
NIX
Dale
NIX
rivendale
NIX
rivendell
NIX
Hamburg
NIX
Auenland
Now the current weather of Auenland
-------------------------

The weather is sunny. The temperature is 21.23°C and the wind speed is 2.4km/h.
Ramelsloh
NIX
Ramelsloh
NIX
Hamburg
NIX
Ramelsloh
NIX
Ramelsloh
NIX
Brackel
NIX
Ramelsloh
NIX
Bastia
NIX
Hamburg
NIX
clausthal-zellerfeld
NIX
